Madden NFL 2004,2016,Electronic Arts
Call of Duty: Advanced Warfare,2014,Activision
FIFA 15,2014,Electronic Arts
Pokemon Omega Ruby/Pokemon Alpha Sapphire,2014,Nintendo
Super Smash Bros. for Wii U and 3DS,2014,Nintendo
Grand Theft Auto V,2014,Take-Two Interactive
Call of Duty: Ghosts,2013,Activision
Call of Duty: Ghosts,2013,Activision
FIFA Soccer 14,2013,Electronic Arts
MineCraft,2013,Microsoft Game Studios
Pok?mon X/Y,2013,Nintendo
The Last of Us,2013,Sony Computer Entertainment Europe
Grand Theft Auto V,2013,Take-Two Interactive
Grand Theft Auto V,2013,Take-Two Interactive
Call of Duty: Black Ops II,2012,Activision
Call of Duty: Black Ops II,2012,Activision
FIFA Soccer 13,2012,Electronic Arts
FIFA Soccer 13,2012,Electronic Arts
Halo 4,2012,Microsoft Game Studios
New Super Mario Bros. 2,2012,Nintendo
Pokemon Black / White Version 2,2012,Nintendo
Animal Crossing: New Leaf,2012,Nintendo
Just Dance 4,2012,Ubisoft
Assassin's Creed III,2012,Ubisoft
Assassin's Creed III,2012,Ubisoft
Call of Duty: Modern Warfare 3,2011,Activision
Call of Duty: Modern Warfare 3,2011,Activision
The Elder Scrolls V: Skyrim,2011,Bethesda Softworks
The Elder Scrolls V: Skyrim,2011,Bethesda Softworks
Battlefield 3,2011,Electronic Arts
Battlefield 3,2011,Electronic Arts
FIFA Soccer 12,2011,Electronic Arts
Gears of War 3,2011,Microsoft Game Studios
Mario Kart 7,2011,Nintendo
Super Mario 3D Land,2011,Nintendo
Uncharted 3: Drake's Deception,2011,Sony Computer Entertainment
Just Dance 3,2011,Ubisoft
Batman: Arkham City,2011,Warner Bros. Interactive Entertainment
Zumba Fitness,2010,505 Games
Call of Duty: Black Ops,2010,Activision
Call of Duty: Black Ops,2010,Activision
Monster Hunter Freedom 3,2010,Capcom
FIFA Soccer 11,2010,Electronic Arts
Kinect Adventures!,2010,Microsoft Game Studios
Halo: Reach,2010,Microsoft Game Studios
Kinect Sports,2010,Microsoft Game Studios
Fable III,2010,Microsoft Game Studios
Pok?mon Black / White Version,2010,Nintendo
Wii Party,2010,Nintendo
Super Mario Galaxy 2,2010,Nintendo
Donkey Kong Country Returns,2010,Nintendo
Gran Turismo 5,2010,Sony Computer Entertainment
Red Dead Redemption,2010,Take-Two Interactive
Red Dead Redemption,2010,Take-Two Interactive
Just Dance 2,2010,Ubisoft
Call of Duty: Modern Warfare 2,2009,Activision
Call of Duty: Modern Warfare 2,2009,Activision
Resident Evil 5,2009,Capcom
The Sims 3,2009,Electronic Arts
Halo 3: ODST,2009,Microsoft Game Studios
Forza Motorsport 3,2009,Microsoft Game Studios
Wii Sports Resort,2009,Nintendo
New Super Mario Bros. Wii,2009,Nintendo
Wii Fit Plus,2009,Nintendo
Pok?mon Heart Gold / Soul Silver Version,2009,Nintendo
Dragon Quest IX: Sentinels of the Starry Skies,2009,Nintendo
Uncharted 2: Among Thieves,2009,Sony Computer Entertainment
Final Fantasy XIII,2009,Square Enix
Just Dance,2009,Ubisoft
Assassin's Creed II,2009,Ubisoft
Assassin's Creed II,2009,Ubisoft
Call of Duty: World at War,2008,Activision
Call of Duty: World at War,2008,Activision
Monster Hunter Freedom Unite,2008,Capcom
Metal Gear Solid 4: Guns of the Patriots,2008,Konami Digital Entertainment
Gears of War 2,2008,Microsoft Game Studios
Mario Kart Wii,2008,Nintendo
Super Smash Bros. Brawl,2008,Nintendo
Pok?mon Platinum Version,2008,Nintendo
Mario & Sonic at the Olympic Games,2008,Sega
LittleBigPlanet,2008,Sony Computer Entertainment
Grand Theft Auto IV,2008,Take-Two Interactive
Grand Theft Auto IV,2008,Take-Two Interactive
Call of Duty 4: Modern Warfare,2007,Activision
Call of Duty 4: Modern Warfare,2007,Activision
Guitar Hero III: Legends of Rock,2007,Activision
LEGO Star Wars: The Complete Saga,2007,LucasArts
Halo 3,2007,Microsoft Game Studios
Wii Fit,2007,Nintendo
Super Mario Galaxy,2007,Nintendo
Mario Party DS,2007,Nintendo
Mario Party 8,2007,Nintendo
Professor Layton and the Curious Village,2007,Nintendo
The Legend of Zelda: Phantom Hourglass,2007,Nintendo
Link's Crossbow Training,2007,Nintendo
Pok?mon Mystery Dungeon: Explorers of Time / Darkness,2007,Nintendo
Mario & Sonic at the Olympic Games,2007,Sega
Assassin's Creed,2007,Ubisoft
Cooking Mama,2006,505 Games
Gears of War,2006,Microsoft Game Studios
Wii Sports,2006,Nintendo
New Super Mario Bros.,2006,Nintendo
Wii Play,2006,Nintendo
Pok?mon Diamond / Pearl Version,2006,Nintendo
The Legend of Zelda: Twilight Princess,2006,Nintendo
Guitar Hero II,2006,RedOctane
Final Fantasy XII,2006,Square Enix
Grand Theft Auto: Vice City Stories,2006,Take-Two Interactive
Madden NFL 06,2005,Electronic Arts
Nintendogs,2005,Nintendo
Mario Kart DS,2005,Nintendo
Brain Age: Train Your Brain in Minutes a Day,2005,Nintendo
Brain Age 2: More Training in Minutes a Day,2005,Nintendo
Animal Crossing: Wild World,2005,Nintendo
Big Brain Academy,2005,Nintendo
Grand Theft Auto: Liberty City Stories,2005,Take-Two Interactive
World of Warcraft,2004,Activision
Need for Speed Underground 2,2004,Electronic Arts
Halo 2,2004,Microsoft Game Studios
Pok?mon FireRed / LeafGreen Version,2004,Nintendo
Super Mario 64,2004,Nintendo
Pok?mon Emerald Version,2004,Nintendo
Gran Turismo 4,2004,Sony Computer Entertainment
Dragon Quest VIII: Journey of the Cursed King,2004,Square Enix
Grand Theft Auto: San Andreas,2004,Take-Two Interactive
Need for Speed Underground,2003,Electronic Arts
Final Fantasy X-2,2003,Electronic Arts
Medal of Honor: Rising Sun,2003,Electronic Arts
Mario Kart: Double Dash!!,2003,Nintendo
Super Mario Bros. 3,2003,Nintendo
Medal of Honor: Frontline,2002,Electronic Arts
Pok?mon Ruby / Sapphire Version,2002,Nintendo
Super Mario Sunshine,2002,Nintendo
Kingdom Hearts,2002,Sony Computer Entertainment
Grand Theft Auto: Vice City,2002,Take-Two Interactive
Metal Gear Solid 2: Sons of Liberty,2001,Konami Digital Entertainment
Halo: Combat Evolved,2001,Microsoft Game Studios
Super Smash Bros. Melee,2001,Nintendo
Super Mario Advance,2001,Nintendo
Mario Kart: Super Circuit,2001,Nintendo
Super Mario World,2001,Nintendo
Gran Turismo 3: A-Spec,2001,Sony Computer Entertainment
Final Fantasy X,2001,Sony Computer Entertainment
Grand Theft Auto III,2001,Take-Two Interactive
Crash Bandicoot: The Wrath of Cortex,2001,Universal Interactive
The Sims,2000,Electronic Arts
Pok?mon Crystal Version,2000,Nintendo
Final Fantasy IX,2000,SquareSoft
Tony Hawk's Pro Skater,1999,Activision
Warzone 2100,1999,Eidos Interactive
Driver,1999,GT Interactive
Pok?mon Gold / Silver Version,1999,Nintendo
Super Smash Bros.,1999,Nintendo
Pok?mon Stadium,1999,Nintendo
Pok?mon Pinball,1999,Nintendo
Donkey Kong 64,1999,Nintendo
Super Mario Bros.,1999,Nintendo
Gran Turismo 2,1999,Sony Computer Entertainment
Final Fantasy VIII,1999,SquareSoft
Metal Gear Solid,1998,Konami Digital Entertainment
Pok?mon Yellow: Special Pikachu Edition,1998,Nintendo
The Legend of Zelda: Ocarina of Time,1998,Nintendo
Tekken 3,1998,Sony Computer Entertainment
Crash Bandicoot 3: Warped,1998,Sony Computer Entertainment
Spyro the Dragon,1998,Sony Computer Entertainment
Resident Evil 2,1998,Virgin Interactive
Tomb Raider II,1997,Eidos Interactive
GoldenEye 007,1997,Nintendo
Diddy Kong Racing,1997,Nintendo
Gran Turismo,1997,Sony Computer Entertainment
Final Fantasy VII,1997,Sony Computer Entertainment
Crash Bandicoot 2: Cortex Strikes Back,1997,Sony Computer Entertainment
Microsoft Flight Simulator,1996,Microsoft Game Studios
Pok?mon Red / Green / Blue Version,1996,Nintendo
Super Mario 64,1996,Nintendo
Mario Kart 64,1996,Nintendo
Crash Bandicoot,1996,Sony Computer Entertainment
Tekken 2,1996,Sony Computer Entertainment
Resident Evil,1996,Virgin Interactive
Donkey Kong Country 2: Diddy's Kong Quest,1995,Nintendo
Donkey Kong Country,1994,Nintendo
Super Mario Land 3: Wario Land,1994,Nintendo
Myst,1994,Red Orb
Super Mario All-Stars,1993,Nintendo
Street Fighter II: The World Warrior,1992,Capcom
Super Mario Land 2: 6 Golden Coins,1992,Nintendo
Super Mario Kart,1992,Nintendo
Kirby's Dream Land,1992,Nintendo
Sonic the Hedgehog 2,1992,Sega
Super Mario World,1990,Nintendo
Tetris,1989,Nintendo
Super Mario Land,1989,Nintendo
Dr. Mario,1989,Nintendo
Super Mario Bros. 3,1988,Nintendo
Super Mario Bros. 2,1988,Nintendo
Tetris,1988,Nintendo
The Legend of Zelda,1986,Nintendo
Super Mario Bros.,1985,Nintendo
Duck Hunt,1984,Nintendo
Pac-Man,1982,Atari
